alu.vcd
$date
	Mon Oct 21 19:43:09 2024
$end
$version
	Icarus Verilog
$end
$timescale
	10ps
$end
$scope module alu_tb $end
$var wire 1 ! t_z $end
$var wire 1 " t_s $end
$var wire 1 # t_c $end
$var wire 4 $ t_R [3:0] $end
$var reg 1 % error $end
$var reg 1 & error_R $end
$var reg 1 ' error_c $end
$var reg 1 ( error_s $end
$var reg 1 ) error_z $end
$var reg 4 * t_A [3:0] $end
$var reg 4 + t_B [3:0] $end
$var reg 3 , t_Op [2:0] $end
$var reg 1 - t_cin $end
$var integer 32 . errores [31:0] $end
$scope module mat $end
$var wire 4 / A [3:0] $end
$var wire 4 0 B [3:0] $end
$var wire 3 1 Op [2:0] $end
$var wire 1 - c_in $end
$var wire 1 ! zero $end
$var wire 1 " sign $end
$var wire 4 2 result_ul [3:0] $end
$var wire 4 3 result_sum [3:0] $end
$var wire 1 # carry $end
$var wire 4 4 R [3:0] $end
$var wire 4 5 BMod [3:0] $end
$var wire 4 6 AMod [3:0] $end
$scope module multiplexor $end
$var wire 1 7 Select $end
$var wire 4 8 Out [3:0] $end
$var wire 4 9 B [3:0] $end
$var wire 4 : A [3:0] $end
$upscope $end
$scope module preprocesador $end
$var wire 4 ; A [3:0] $end
$var wire 4 < B [3:0] $end
$var wire 3 = Op [2:0] $end
$var wire 4 > op2b [3:0] $end
$var wire 1 ? op12 $end
$var wire 1 @ cp1 $end
$var wire 4 A addition1 [3:0] $end
$var wire 4 B BMod [3:0] $end
$var wire 1 C Add1 $end
$var wire 4 D AMod [3:0] $end
$scope module cpl $end
$var wire 1 @ cpl $end
$var wire 4 E Out [3:0] $end
$var wire 4 F Inp [3:0] $end
$upscope $end
$scope module decod $end
$var wire 3 G Opcode [2:0] $end
$var wire 1 @ cp1 $end
$var wire 1 ? op12 $end
$var wire 1 H result1 $end
$var wire 1 I result2 $end
$var wire 1 J result3 $end
$var wire 1 K result4 $end
$var wire 1 L result5 $end
$var wire 1 C Add1 $end
$upscope $end
$scope module mux_add1 $end
$var wire 4 M A [3:0] $end
$var wire 4 N B [3:0] $end
$var wire 1 C Select $end
$var wire 4 O Out [3:0] $end
$upscope $end
$scope module mux_op1A $end
$var wire 4 P A [3:0] $end
$var wire 4 Q B [3:0] $end
$var wire 1 ? Select $end
$var wire 4 R Out [3:0] $end
$upscope $end
$scope module mux_op2B $end
$var wire 4 S A [3:0] $end
$var wire 4 T B [3:0] $end
$var wire 1 ? Select $end
$var wire 4 U Out [3:0] $end
$upscope $end
$upscope $end
$scope module sumador $end
$var wire 4 V A [3:0] $end
$var wire 4 W B [3:0] $end
$var wire 1 - c_in $end
$var wire 1 X carry3 $end
$var wire 1 Y carry2 $end
$var wire 1 Z carry1 $end
$var wire 1 # c_out $end
$var wire 4 [ S [3:0] $end
$scope module sumador1 $end
$var wire 1 \ a $end
$var wire 1 ] b $end
$var wire 1 - c_in $end
$var wire 1 ^ sum $end
$var wire 1 Z c_out $end
$upscope $end
$scope module sumador2 $end
$var wire 1 _ a $end
$var wire 1 ` b $end
$var wire 1 Z c_in $end
$var wire 1 a sum $end
$var wire 1 Y c_out $end
$upscope $end
$scope module sumador3 $end
$var wire 1 b a $end
$var wire 1 c b $end
$var wire 1 Y c_in $end
$var wire 1 d sum $end
$var wire 1 X c_out $end
$upscope $end
$scope module sumador4 $end
$var wire 1 e a $end
$var wire 1 f b $end
$var wire 1 X c_in $end
$var wire 1 g sum $end
$var wire 1 # c_out $end
$upscope $end
$upscope $end
$scope module unidad_logica $end
$var wire 4 h A [3:0] $end
$var wire 4 i B [3:0] $end
$var wire 2 j S [1:0] $end
$var wire 4 k Out [3:0] $end
$scope module log_cell1 $end
$var wire 2 l S [1:0] $end
$var wire 1 m a $end
$var wire 1 n b $end
$var wire 1 o result1 $end
$var wire 1 p result2 $end
$var wire 1 q result3 $end
$var wire 1 r result4 $end
$var wire 1 s out $end
$scope module mux4_11 $end
$var wire 2 t S [1:0] $end
$var wire 1 o a $end
$var wire 1 p b $end
$var wire 1 q c $end
$var wire 1 r d $end
$var reg 1 s out $end
$upscope $end
$upscope $end
$scope module log_cell2 $end
$var wire 2 u S [1:0] $end
$var wire 1 v a $end
$var wire 1 w b $end
$var wire 1 x result1 $end
$var wire 1 y result2 $end
$var wire 1 z result3 $end
$var wire 1 { result4 $end
$var wire 1 | out $end
$scope module mux4_11 $end
$var wire 2 } S [1:0] $end
$var wire 1 x a $end
$var wire 1 y b $end
$var wire 1 z c $end
$var wire 1 { d $end
$var reg 1 | out $end
$upscope $end
$upscope $end
$scope module log_cell3 $end
$var wire 2 ~ S [1:0] $end
$var wire 1 !" a $end
$var wire 1 "" b $end
$var wire 1 #" result1 $end
$var wire 1 $" result2 $end
$var wire 1 %" result3 $end
$var wire 1 &" result4 $end
$var wire 1 '" out $end
$scope module mux4_11 $end
$var wire 2 (" S [1:0] $end
$var wire 1 #" a $end
$var wire 1 $" b $end
$var wire 1 %" c $end
$var wire 1 &" d $end
$var reg 1 '" out $end
$upscope $end
$upscope $end
$scope module log_cell4 $end
$var wire 2 )" S [1:0] $end
$var wire 1 *" a $end
$var wire 1 +" b $end
$var wire 1 ," result1 $end
$var wire 1 -" result2 $end
$var wire 1 ." result3 $end
$var wire 1 /" result4 $end
$var wire 1 0" out $end
$scope module mux4_11 $end
$var wire 2 1" S [1:0] $end
$var wire 1 ," a $end
$var wire 1 -" b $end
$var wire 1 ." c $end
$var wire 1 /" d $end
$var reg 1 0" out $end
$upscope $end
$upscope $end
$upscope $end
$upscope $end
$scope task check $end
$var reg 5 2" expected_R [4:0] $end
$var reg 1 3" expected_c $end
$var reg 1 4" expected_s $end
$var reg 1 5" expected_z $end
$upscope $end
$upscope $end
$scope module sum4 $end
$var wire 4 6" A [3:0] $end
$var wire 4 7" B [3:0] $end
$var wire 1 8" c_in $end
$var wire 1 9" c_out $end
$var wire 4 :" S [3:0] $end
$upscope $end
$enddefinitions $end
$comment Show the parameter values. $end
$dumpall
$end
#0
$dumpvars
bx :"
x9"
z8"
bz 7"
bz 6"
x5"
x4"
x3"
bx 2"
b0 1"
00"
1/"
0."
0-"
0,"
0+"
0*"
b0 )"
b0 ("
0'"
1&"
0%"
0$"
0#"
0""
0!"
b0 ~
b0 }
0|
1{
0z
0y
0x
0w
0v
b0 u
b0 t
0s
1r
0q
0p
0o
0n
0m
b0 l
b0 k
b0 j
b0 i
b0 h
0g
0f
0e
0d
0c
0b
0a
0`
0_
0^
0]
0\
b0 [
0Z
0Y
0X
b0 W
b0 V
b0 U
b0 T
b0 S
b0 R
b0 Q
b0 P
b0 O
b1 N
b0 M
1L
1K
1J
0I
1H
b0 G
b0 F
b0 E
b0 D
0C
b0 B
b0 A
0@
0?
b0 >
b0 =
b0 <
b0 ;
b0 :
b0 9
b0 8
07
b0 6
b0 5
b0 4
b0 3
b0 2
b0 1
b0 0
b0 /
b0 .
0-
b0 ,
b0 +
b0 *
x)
x(
x'
x&
x%
b0 $
0#
0"
1!
$end
#1
0%
0)
0&
15"
0'
0(
04"
03"
b0 2"
#1000
b1 +
b1 0
b1 <
b1 T
#2000
b10 +
b10 0
b10 <
b10 T
#3000
b11 +
b11 0
b11 <
b11 T
#4000
b100 +
b100 0
b100 <
b100 T
#5000
b101 +
b101 0
b101 <
b101 T
#6000
b110 +
b110 0
b110 <
b110 T
#7000
b111 +
b111 0
b111 <
b111 T
#8000
b1000 +
b1000 0
b1000 <
b1000 T
#9000
b1001 +
b1001 0
b1001 <
b1001 T
#10000
b1010 +
b1010 0
b1010 <
b1010 T
#11000
b1011 +
b1011 0
b1011 <
b1011 T
#12000
b1100 +
b1100 0
b1100 <
b1100 T
#13000
b1101 +
b1101 0
b1101 <
b1101 T
#14000
b1110 +
b1110 0
b1110 <
b1110 T
#15000
b1111 +
b1111 0
b1111 <
b1111 T
#16000
0!
b1 $
b1 4
b1 8
b1 3
b1 :
b1 [
1^
1p
1q
1]
1n
b1 5
b1 B
b1 E
b1 W
b1 i
b1 >
b1 F
b1 U
b1 *
b1 /
b1 ;
b1 Q
b1 S
b0 +
b0 0
b0 <
b0 T
#16001
05"
b1 2"
#17000
b1 +
b1 0
b1 <
b1 T
#18000
b10 +
b10 0
b10 <
b10 T
#19000
b11 +
b11 0
b11 <
b11 T
#20000
b100 +
b100 0
b100 <
b100 T
#21000
b101 +
b101 0
b101 <
b101 T
#22000
b110 +
b110 0
b110 <
b110 T
#23000
b111 +
b111 0
b111 <
b111 T
#24000
b1000 +
b1000 0
b1000 <
b1000 T
#25000
b1001 +
b1001 0
b1001 <
b1001 T
#26000
b1010 +
b1010 0
b1010 <
b1010 T
#27000
b1011 +
b1011 0
b1011 <
b1011 T
#28000
b1100 +
b1100 0
b1100 <
b1100 T
#29000
b1101 +
b1101 0
b1101 <
b1101 T
#30000
b1110 +
b1110 0
b1110 <
b1110 T
#31000
b1111 +
b1111 0
b1111 <
b1111 T
#32000
b10 $
b10 4
b10 8
0^
b10 3
b10 :
b10 [
1a
0p
0q
1y
1z
0]
1`
0n
1w
b10 5
b10 B
b10 E
b10 W
b10 i
b10 >
b10 F
b10 U
b10 *
b10 /
b10 ;
b10 Q
b10 S
b0 +
b0 0
b0 <
b0 T
#32001
b10 2"
#33000
b1 +
b1 0
b1 <
b1 T
#34000
b10 +
b10 0
b10 <
b10 T
#35000
b11 +
b11 0
b11 <
b11 T
#36000
b100 +
b100 0
b100 <
b100 T
#37000
b101 +
b101 0
b101 <
b101 T
#38000
b110 +
b110 0
b110 <
b110 T
#39000
b111 +
b111 0
b111 <
b111 T
#40000
b1000 +
b1000 0
b1000 <
b1000 T
#41000
b1001 +
b1001 0
b1001 <
b1001 T
#42000
b1010 +
b1010 0
b1010 <
b1010 T
#43000
b1011 +
b1011 0
b1011 <
b1011 T
#44000
b1100 +
b1100 0
b1100 <
b1100 T
#45000
b1101 +
b1101 0
b1101 <
b1101 T
#46000
b1110 +
b1110 0
b1110 <
b1110 T
#47000
b1111 +
b1111 0
b1111 <
b1111 T
#48000
b11 $
b11 4
b11 8
b11 3
b11 :
b11 [
1^
1p
1q
1]
1n
b11 5
b11 B
b11 E
b11 W
b11 i
b11 >
b11 F
b11 U
b11 *
b11 /
b11 ;
b11 Q
b11 S
b0 +
b0 0
b0 <
b0 T
#48001
b11 2"
#49000
b1 +
b1 0
b1 <
b1 T
#50000
b10 +
b10 0
b10 <
b10 T
#51000
b11 +
b11 0
b11 <
b11 T
#52000
b100 +
b100 0
b100 <
b100 T
#53000
b101 +
b101 0
b101 <
b101 T
#54000
b110 +
b110 0
b110 <
b110 T
#55000
b111 +
b111 0
b111 <
b111 T
#56000
b1000 +
b1000 0
b1000 <
b1000 T
#57000
b1001 +
b1001 0
b1001 <
b1001 T
#58000
b1010 +
b1010 0
b1010 <
b1010 T
#59000
b1011 +
b1011 0
b1011 <
b1011 T
#60000
b1100 +
b1100 0
b1100 <
b1100 T
#61000
b1101 +
b1101 0
b1101 <
b1101 T
#62000
b1110 +
b1110 0
b1110 <
b1110 T
#63000
b1111 +
b1111 0
b1111 <
b1111 T
#64000
b100 $
b100 4
b100 8
0^
0a
b100 3
b100 :
b100 [
1d
0p
0q
0y
0z
1$"
1%"
0]
0`
1c
0n
0w
1""
b100 5
b100 B
b100 E
b100 W
b100 i
b100 >
b100 F
b100 U
b100 *
b100 /
b100 ;
b100 Q
b100 S
b0 +
b0 0
b0 <
b0 T
#64001
b100 2"
#65000
b1 +
b1 0
b1 <
b1 T
#66000
b10 +
b10 0
b10 <
b10 T
#67000
b11 +
b11 0
b11 <
b11 T
#68000
b100 +
b100 0
b100 <
b100 T
#69000
b101 +
b101 0
b101 <
b101 T
#70000
b110 +
b110 0
b110 <
b110 T
#71000
b111 +
b111 0
b111 <
b111 T
#72000
b1000 +
b1000 0
b1000 <
b1000 T
#73000
b1001 +
b1001 0
b1001 <
b1001 T
#74000
b1010 +
b1010 0
b1010 <
b1010 T
#75000
b1011 +
b1011 0
b1011 <
b1011 T
#76000
b1100 +
b1100 0
b1100 <
b1100 T
#77000
b1101 +
b1101 0
b1101 <
b1101 T
#78000
b1110 +
b1110 0
b1110 <
b1110 T
#79000
b1111 +
b1111 0
b1111 <
b1111 T
#80000
b101 $
b101 4
b101 8
b101 3
b101 :
b101 [
1^
1p
1q
1]
1n
b101 5
b101 B
b101 E
b101 W
b101 i
b101 >
b101 F
b101 U
b101 *
b101 /
b101 ;
b101 Q
b101 S
b0 +
b0 0
b0 <
b0 T
#80001
b101 2"
#81000
b1 +
b1 0
b1 <
b1 T
#82000
b10 +
b10 0
b10 <
b10 T
#83000
b11 +
b11 0
b11 <
b11 T
#84000
b100 +
b100 0
b100 <
b100 T
#85000
b101 +
b101 0
b101 <
b101 T
#86000
b110 +
b110 0
b110 <
b110 T
#87000
b111 +
b111 0
b111 <
b111 T
#88000
b1000 +
b1000 0
b1000 <
b1000 T
#89000
b1001 +
b1001 0
b1001 <
b1001 T
#90000
b1010 +
b1010 0
b1010 <
b1010 T
#91000
b1011 +
b1011 0
b1011 <
b1011 T
#92000
b1100 +
b1100 0
b1100 <
b1100 T
#93000
b1101 +
b1101 0
b1101 <
b1101 T
#94000
b1110 +
b1110 0
b1110 <
b1110 T
#95000
b1111 +
b1111 0
b1111 <
b1111 T
#96000
b110 $
b110 4
b110 8
0^
b110 3
b110 :
b110 [
1a
0p
0q
1y
1z
0]
1`
0n
1w
b110 5
b110 B
b110 E
b110 W
b110 i
b110 >
b110 F
b110 U
b110 *
b110 /
b110 ;
b110 Q
b110 S
b0 +
b0 0
b0 <
b0 T
#96001
b110 2"
#97000
b1 +
b1 0
b1 <
b1 T
#98000
b10 +
b10 0
b10 <
b10 T
#99000
b11 +
b11 0
b11 <
b11 T
#100000
b100 +
b100 0
b100 <
b100 T
#101000
b101 +
b101 0
b101 <
b101 T
#102000
b110 +
b110 0
b110 <
b110 T
#103000
b111 +
b111 0
b111 <
b111 T
#104000
b1000 +
b1000 0
b1000 <
b1000 T
#105000
b1001 +
b1001 0
b1001 <
b1001 T
#106000
b1010 +
b1010 0
b1010 <
b1010 T
#107000
b1011 +
b1011 0
b1011 <
b1011 T
#108000
b1100 +
b1100 0
b1100 <
b1100 T
#109000
b1101 +
b1101 0
b1101 <
b1101 T
#110000
b1110 +
b1110 0
b1110 <
b1110 T
#111000
b1111 +
b1111 0
b1111 <
b1111 T
#112000
b111 $
b111 4
b111 8
b111 3
b111 :
b111 [
1^
1p
1q
1]
1n
b111 5
b111 B
b111 E
b111 W
b111 i
b111 >
b111 F
b111 U
b111 *
b111 /
b111 ;
b111 Q
b111 S
b0 +
b0 0
b0 <
b0 T
#112001
b111 2"
#113000
b1 +
b1 0
b1 <
b1 T
#114000
b10 +
b10 0
b10 <
b10 T
#115000
b11 +
b11 0
b11 <
b11 T
#116000
b100 +
b100 0
b100 <
b100 T
#117000
b101 +
b101 0
b101 <
b101 T
#118000
b110 +
b110 0
b110 <
b110 T
#119000
b111 +
b111 0
b111 <
b111 T
#120000
b1000 +
b1000 0
b1000 <
b1000 T
#121000
b1001 +
b1001 0
b1001 <
b1001 T
#122000
b1010 +
b1010 0
b1010 <
b1010 T
#123000
b1011 +
b1011 0
b1011 <
b1011 T
#124000
b1100 +
b1100 0
b1100 <
b1100 T
#125000
b1101 +
b1101 0
b1101 <
b1101 T
#126000
b1110 +
b1110 0
b1110 <
b1110 T
#127000
b1111 +
b1111 0
b1111 <
b1111 T
#128000
1"
b1000 $
b1000 4
b1000 8
0^
0a
0d
b1000 3
b1000 :
b1000 [
1g
0p
0q
0y
0z
0$"
0%"
1-"
1."
0]
0`
0c
1f
0n
0w
0""
1+"
b1000 5
b1000 B
b1000 E
b1000 W
b1000 i
b1000 >
b1000 F
b1000 U
b1000 *
b1000 /
b1000 ;
b1000 Q
b1000 S
b0 +
b0 0
b0 <
b0 T
#128001
14"
b1000 2"
#129000
b1 +
b1 0
b1 <
b1 T
#130000
b10 +
b10 0
b10 <
b10 T
#131000
b11 +
b11 0
b11 <
b11 T
#132000
b100 +
b100 0
b100 <
b100 T
#133000
b101 +
b101 0
b101 <
b101 T
#134000
b110 +
b110 0
b110 <
b110 T
#135000
b111 +
b111 0
b111 <
b111 T
#136000
b1000 +
b1000 0
b1000 <
b1000 T
#137000
b1001 +
b1001 0
b1001 <
b1001 T
#138000
b1010 +
b1010 0
b1010 <
b1010 T
#139000
b1011 +
b1011 0
b1011 <
b1011 T
#140000
b1100 +
b1100 0
b1100 <
b1100 T
#141000
b1101 +
b1101 0
b1101 <
b1101 T
#142000
b1110 +
b1110 0
b1110 <
b1110 T
#143000
b1111 +
b1111 0
b1111 <
b1111 T
#144000
b1001 $
b1001 4
b1001 8
b1001 3
b1001 :
b1001 [
1^
1p
1q
1]
1n
b1001 5
b1001 B
b1001 E
b1001 W
b1001 i
b1001 >
b1001 F
b1001 U
b1001 *
b1001 /
b1001 ;
b1001 Q
b1001 S
b0 +
b0 0
b0 <
b0 T
#144001
b1001 2"
#145000
b1 +
b1 0
b1 <
b1 T
#146000
b10 +
b10 0
b10 <
b10 T
#147000
b11 +
b11 0
b11 <
b11 T
#148000
b100 +
b100 0
b100 <
b100 T
#149000
b101 +
b101 0
b101 <
b101 T
#150000
b110 +
b110 0
b110 <
b110 T
#151000
b111 +
b111 0
b111 <
b111 T
#152000
b1000 +
b1000 0
b1000 <
b1000 T
#153000
b1001 +
b1001 0
b1001 <
b1001 T
#154000
b1010 +
b1010 0
b1010 <
b1010 T
#155000
b1011 +
b1011 0
b1011 <
b1011 T
#156000
b1100 +
b1100 0
b1100 <
b1100 T
#157000
b1101 +
b1101 0
b1101 <
b1101 T
#158000
b1110 +
b1110 0
b1110 <
b1110 T
#159000
b1111 +
b1111 0
b1111 <
b1111 T
#160000
b1010 $
b1010 4
b1010 8
0^
b1010 3
b1010 :
b1010 [
1a
0p
0q
1y
1z
0]
1`
0n
1w
b1010 5
b1010 B
b1010 E
b1010 W
b1010 i
b1010 >
b1010 F
b1010 U
b1010 *
b1010 /
b1010 ;
b1010 Q
b1010 S
b0 +
b0 0
b0 <
b0 T
#160001
b1010 2"
#161000
b1 +
b1 0
b1 <
b1 T
#162000
b10 +
b10 0
b10 <
b10 T
#163000
b11 +
b11 0
b11 <
b11 T
#164000
b100 +
b100 0
b100 <
b100 T
#165000
b101 +
b101 0
b101 <
b101 T
#166000
b110 +
b110 0
b110 <
b110 T
#167000
b111 +
b111 0
b111 <
b111 T
#168000
b1000 +
b1000 0
b1000 <
b1000 T
#169000
b1001 +
b1001 0
b1001 <
b1001 T
#170000
b1010 +
b1010 0
b1010 <
b1010 T
#171000
b1011 +
b1011 0
b1011 <
b1011 T
#172000
b1100 +
b1100 0
b1100 <
b1100 T
#173000
b1101 +
b1101 0
b1101 <
b1101 T
#174000
b1110 +
b1110 0
b1110 <
b1110 T
#175000
b1111 +
b1111 0
b1111 <
b1111 T
#176000
b1011 $
b1011 4
b1011 8
b1011 3
b1011 :
b1011 [
1^
1p
1q
1]
1n
b1011 5
b1011 B
b1011 E
b1011 W
b1011 i
b1011 >
b1011 F
b1011 U
b1011 *
b1011 /
b1011 ;
b1011 Q
b1011 S
b0 +
b0 0
b0 <
b0 T
#176001
b1011 2"
#177000
b1 +
b1 0
b1 <
b1 T
#178000
b10 +
b10 0
b10 <
b10 T
#179000
b11 +
b11 0
b11 <
b11 T
#180000
b100 +
b100 0
b100 <
b100 T
#181000
b101 +
b101 0
b101 <
b101 T
#182000
b110 +
b110 0
b110 <
b110 T
#183000
b111 +
b111 0
b111 <
b111 T
#184000
b1000 +
b1000 0
b1000 <
b1000 T
#185000
b1001 +
b1001 0
b1001 <
b1001 T
#186000
b1010 +
b1010 0
b1010 <
b1010 T
#187000
b1011 +
b1011 0
b1011 <
b1011 T
#188000
b1100 +
b1100 0
b1100 <
b1100 T
#189000
b1101 +
b1101 0
b1101 <
b1101 T
#190000
b1110 +
b1110 0
b1110 <
b1110 T
#191000
b1111 +
b1111 0
b1111 <
b1111 T
#192000
b1100 $
b1100 4
b1100 8
0^
0a
b1100 3
b1100 :
b1100 [
1d
0p
0q
0y
0z
1$"
1%"
0]
0`
1c
0n
0w
1""
b1100 5
b1100 B
b1100 E
b1100 W
b1100 i
b1100 >
b1100 F
b1100 U
b1100 *
b1100 /
b1100 ;
b1100 Q
b1100 S
b0 +
b0 0
b0 <
b0 T
#192001
b1100 2"
#193000
b1 +
b1 0
b1 <
b1 T
#194000
b10 +
b10 0
b10 <
b10 T
#195000
b11 +
b11 0
b11 <
b11 T
#196000
b100 +
b100 0
b100 <
b100 T
#197000
b101 +
b101 0
b101 <
b101 T
#198000
b110 +
b110 0
b110 <
b110 T
#199000
b111 +
b111 0
b111 <
b111 T
#200000
b1000 +
b1000 0
b1000 <
b1000 T
#201000
b1001 +
b1001 0
b1001 <
b1001 T
#202000
b1010 +
b1010 0
b1010 <
b1010 T
#203000
b1011 +
b1011 0
b1011 <
b1011 T
#204000
b1100 +
b1100 0
b1100 <
b1100 T
#205000
b1101 +
b1101 0
b1101 <
b1101 T
#206000
b1110 +
b1110 0
b1110 <
b1110 T
#207000
b1111 +
b1111 0
b1111 <
b1111 T
#208000
b1101 $
b1101 4
b1101 8
b1101 3
b1101 :
b1101 [
1^
1p
1q
1]
1n
b1101 5
b1101 B
b1101 E
b1101 W
b1101 i
b1101 >
b1101 F
b1101 U
b1101 *
b1101 /
b1101 ;
b1101 Q
b1101 S
b0 +
b0 0
b0 <
b0 T
#208001
b1101 2"
#209000
b1 +
b1 0
b1 <
b1 T
#210000
b10 +
b10 0
b10 <
b10 T
#211000
b11 +
b11 0
b11 <
b11 T
#212000
b100 +
b100 0
b100 <
b100 T
#213000
b101 +
b101 0
b101 <
b101 T
#214000
b110 +
b110 0
b110 <
b110 T
#215000
b111 +
b111 0
b111 <
b111 T
#216000
b1000 +
b1000 0
b1000 <
b1000 T
#217000
b1001 +
b1001 0
b1001 <
b1001 T
#218000
b1010 +
b1010 0
b1010 <
b1010 T
#219000
b1011 +
b1011 0
b1011 <
b1011 T
#220000
b1100 +
b1100 0
b1100 <
b1100 T
#221000
b1101 +
b1101 0
b1101 <
b1101 T
#222000
b1110 +
b1110 0
b1110 <
b1110 T
#223000
b1111 +
b1111 0
b1111 <
b1111 T
#224000
b1110 $
b1110 4
b1110 8
0^
b1110 3
b1110 :
b1110 [
1a
0p
0q
1y
1z
0]
1`
0n
1w
b1110 5
b1110 B
b1110 E
b1110 W
b1110 i
b1110 >
b1110 F
b1110 U
b1110 *
b1110 /
b1110 ;
b1110 Q
b1110 S
b0 +
b0 0
b0 <
b0 T
#224001
b1110 2"
#225000
b1 +
b1 0
b1 <
b1 T
#226000
b10 +
b10 0
b10 <
b10 T
#227000
b11 +
b11 0
b11 <
b11 T
#228000
b100 +
b100 0
b100 <
b100 T
#229000
b101 +
b101 0
b101 <
b101 T
#230000
b110 +
b110 0
b110 <
b110 T
#231000
b111 +
b111 0
b111 <
b111 T
#232000
b1000 +
b1000 0
b1000 <
b1000 T
#233000
b1001 +
b1001 0
b1001 <
b1001 T
#234000
b1010 +
b1010 0
b1010 <
b1010 T
#235000
b1011 +
b1011 0
b1011 <
b1011 T
#236000
b1100 +
b1100 0
b1100 <
b1100 T
#237000
b1101 +
b1101 0
b1101 <
b1101 T
#238000
b1110 +
b1110 0
b1110 <
b1110 T
#239000
b1111 +
b1111 0
b1111 <
b1111 T
#240000
b1111 $
b1111 4
b1111 8
b1111 3
b1111 :
b1111 [
1^
1p
1q
1]
1n
b1111 5
b1111 B
b1111 E
b1111 W
b1111 i
b1111 >
b1111 F
b1111 U
b1111 *
b1111 /
b1111 ;
b1111 Q
b1111 S
b0 +
b0 0
b0 <
b0 T
#240001
b1111 2"
#241000
b1 +
b1 0
b1 <
b1 T
#242000
b10 +
b10 0
b10 <
b10 T
#243000
b11 +
b11 0
b11 <
b11 T
#244000
b100 +
b100 0
b100 <
b100 T
#245000
b101 +
b101 0
b101 <
b101 T
#246000
b110 +
b110 0
b110 <
b110 T
#247000
b111 +
b111 0
b111 <
b111 T
#248000
b1000 +
b1000 0
b1000 <
b1000 T
#249000
b1001 +
b1001 0
b1001 <
b1001 T
#250000
b1010 +
b1010 0
b1010 <
b1010 T
#251000
b1011 +
b1011 0
b1011 <
b1011 T
#252000
b1100 +
b1100 0
b1100 <
b1100 T
#253000
b1101 +
b1101 0
b1101 <
b1101 T
#254000
b1110 +
b1110 0
b1110 <
b1110 T
#255000
b1111 +
b1111 0
b1111 <
b1111 T
#256000
0"
0d
0g
0p
0q
0y
0z
0$"
0%"
0-"
0."
0]
0`
0c
0f
0n
0w
0""
0+"
b1 $
b1 4
b1 8
0a
0Y
b0 5
b0 B
b0 E
b0 W
b0 i
b1 3
b1 :
b1 [
1^
0Z
b0 >
b0 F
b0 U
1-
b0 *
b0 /
b0 ;
b0 Q
b0 S
b0 +
b0 0
b0 <
b0 T
#256001
04"
b1 2"
#257000
b1 +
b1 0
b1 <
b1 T
#258000
b10 +
b10 0
b10 <
b10 T
#259000
b11 +
b11 0
b11 <
b11 T
#260000
b100 +
b100 0
b100 <
b100 T
#261000
b101 +
b101 0
b101 <
b101 T
#262000
b110 +
b110 0
b110 <
b110 T
#263000
b111 +
b111 0
b111 <
b111 T
#264000
b1000 +
b1000 0
b1000 <
b1000 T
#265000
b1001 +
b1001 0
b1001 <
b1001 T
#266000
b1010 +
b1010 0
b1010 <
b1010 T
#267000
b1011 +
b1011 0
b1011 <
b1011 T
#268000
b1100 +
b1100 0
b1100 <
b1100 T
#269000
b1101 +
b1101 0
b1101 <
b1101 T
#270000
b1110 +
b1110 0
b1110 <
b1110 T
#271000
b1111 +
b1111 0
b1111 <
b1111 T
#272000
b10 $
b10 4
b10 8
1a
b10 3
b10 :
b10 [
0^
1Z
1p
1q
1]
1n
b1 5
b1 B
b1 E
b1 W
b1 i
b1 >
b1 F
b1 U
b1 *
b1 /
b1 ;
b1 Q
b1 S
b0 +
b0 0
b0 <
b0 T
#272001
b10 2"
#273000
b1 +
b1 0
b1 <
b1 T
#274000
b10 +
b10 0
b10 <
b10 T
#275000
b11 +
b11 0
b11 <
b11 T
#276000
b100 +
b100 0
b100 <
b100 T
#277000
b101 +
b101 0
b101 <
b101 T
#278000
b110 +
b110 0
b110 <
b110 T
#279000
b111 +
b111 0
b111 <
b111 T
#280000
b1000 +
b1000 0
b1000 <
b1000 T
#281000
b1001 +
b1001 0
b1001 <
b1001 T
#282000
b1010 +
b1010 0
b1010 <
b1010 T
#283000
b1011 +
b1011 0
b1011 <
b1011 T
#284000
b1100 +
b1100 0
b1100 <
b1100 T
#285000
b1101 +
b1101 0
b1101 <
b1101 T
#286000
b1110 +
b1110 0
b1110 <
b1110 T
#287000
b1111 +
b1111 0
b1111 <
b1111 T
#288000
b11 $
b11 4
b11 8
0d
1^
0Z
b11 3
b11 :
b11 [
1a
0Y
0p
0q
1y
1z
0]
1`
0n
1w
b10 5
b10 B
b10 E
b10 W
b10 i
b10 >
b10 F
b10 U
b10 *
b10 /
b10 ;
b10 Q
b10 S
b0 +
b0 0
b0 <
b0 T
#288001
b11 2"
#289000
b1 +
b1 0
b1 <
b1 T
#290000
b10 +
b10 0
b10 <
b10 T
#291000
b11 +
b11 0
b11 <
b11 T
#292000
b100 +
b100 0
b100 <
b100 T
#293000
b101 +
b101 0
b101 <
b101 T
#294000
b110 +
b110 0
b110 <
b110 T
#295000
b111 +
b111 0
b111 <
b111 T
#296000
b1000 +
b1000 0
b1000 <
b1000 T
#297000
b1001 +
b1001 0
b1001 <
b1001 T
#298000
b1010 +
b1010 0
b1010 <
b1010 T
#299000
b1011 +
b1011 0
b1011 <
b1011 T
#300000
b1100 +
b1100 0
b1100 <
b1100 T
#301000
b1101 +
b1101 0
b1101 <
b1101 T
#302000
b1110 +
b1110 0
b1110 <
b1110 T
#303000
b1111 +
b1111 0
b1111 <
b1111 T
#304000
0!
1d
b100 $
b100 4
b100 8
0a
1Y
b100 3
b100 :
b100 [
0^
1Z
1p
1q
1]
1n
b11 5
b11 B
b11 E
b11 W
b11 i
b11 >
b11 F
b11 U
b11 *
b11 /
b11 ;
b11 Q
b11 S
b0 +
b0 0
b0 <
b0 T
#304001
b100 2"
#305000
b1 +
b1 0
b1 <
b1 T
#306000
b10 +
b10 0
b10 <
b10 T
#307000
b11 +
b11 0
b11 <
b11 T
#308000
b100 +
b100 0
b100 <
b100 T
#309000
b101 +
b101 0
b101 <
b101 T
#310000
b110 +
b110 0
b110 <
b110 T
#311000
b111 +
b111 0
b111 <
b111 T
#312000
b1000 +
b1000 0
b1000 <
b1000 T
#313000
b1001 +
b1001 0
b1001 <
b1001 T
#314000
b1010 +
b1010 0
b1010 <
b1010 T
#315000
b1011 +
b1011 0
b1011 <
b1011 T
#316000
b1100 +
b1100 0
b1100 <
b1100 T
#317000
b1101 +
b1101 0
b1101 <
b1101 T
#318000
b1110 +
b1110 0
b1110 <
b1110 T
#319000
b1111 +
b1111 0
b1111 <
b1111 T
#320000
0"
b101 $
b101 4
b101 8
0g
1^
0Z
0a
0Y
b101 3
b101 :
b101 [
1d
0X
0p
0q
0y
0z
1$"
1%"
0]
0`
1c
0n
0w
1""
b100 5
b100 B
b100 E
b100 W
b100 i
b100 >
b100 F
b100 U
b100 *
b100 /
b100 ;
b100 Q
b100 S
b0 +
b0 0
b0 <
b0 T
#320001
b101 2"
#321000
b1 +
b1 0
b1 <
b1 T
#322000
b10 +
b10 0
b10 <
b10 T
#323000
b11 +
b11 0
b11 <
b11 T
#324000
b100 +
b100 0
b100 <
b100 T
#325000
b101 +
b101 0
b101 <
b101 T
#326000
b110 +
b110 0
b110 <
b110 T
#327000
b111 +
b111 0
b111 <
b111 T
